3/project/scan/scan.sim/sim_1/behav/xsim/wave.vcd
$date
   Sat Jun 24 19:57:42 2023
$end
$version
  2018.3
$end
$timescale
  1ps
$end
$scope module tb_scan_top $end
$var reg 1 ! clk $end
$var reg 1 " rst_n $end
$var wire 4 # select [3:0] $end
$var wire 1 $ rbo_n $end
$var wire 7 % seg_out [6:0] $end
$var wire 1 & dp_out $end
$var parameter 32 ' PERIOD [31:0] $end
$scope module u_scan_top $end
$var wire 1 ( clk $end
$var wire 1 ) rst_n $end
$var wire 4 # select [3:0] $end
$var wire 1 $ rbo_n $end
$var wire 7 % seg_out [6:0] $end
$var wire 1 & dp_out $end
$var wire 4 * segment [3:0] $end
$scope module u_scan_display $end
$var wire 1 ( clk $end
$var wire 1 ) rst_n $end
$var reg 4 + select [3:0] $end
$var reg 4 , segment [3:0] $end
$upscope $end
$scope module u_seven_segment_decoder $end
$var wire 4 * din [3:0] $end
$var wire 1 - ib_n $end
$var wire 1 . lt_n $end
$var wire 1 / rbi_n $end
$var reg 1 0 rbo_n $end
$var reg 7 1 seg_out [6:0] $end
$var reg 1 2 dp_out $end
$var reg 1 3 select $end
$upscope $end
$upscope $end
$upscope $end
$enddefinitions $end
#0
$dumpvars
0!
0"
b0 #
1$
b1111110 %
0&
b1010 '
0(
0)
b0 *
b0 +
b0 ,
1-
1.
1/
10
b1111110 1
02
13
$end
#5000
1!
1"
b1000 #
b110000 %
1(
1)
b1 *
b1000 +
b1 ,
10
b110000 1
02
#10000
0!
0(
#15000
1!
b100 #
b1101101 %
1(
b10 *
b100 +
b10 ,
10
b1101101 1
02
#20000
0!
0(
#25000
1!
b10 #
b1111001 %
1(
b11 *
b10 +
b11 ,
10
b1111001 1
02
#30000
0!
0(
#35000
1!
b1 #
b110011 %
1(
b100 *
b1 +
b100 ,
10
b110011 1
02
#40000
0!
0(
#45000
1!
b1000 #
b110000 %
1(
b1 *
b1000 +
b1 ,
10
b110000 1
02
#50000
0!
0(
#55000
1!
b100 #
b1101101 %
1(
b10 *
b100 +
b10 ,
10
b1101101 1
02
#60000
0!
0(
#65000
1!
b10 #
b1111001 %
1(
b11 *
b10 +
b11 ,
10
b1111001 1
02
#70000
0!
0(
#75000
1!
b1 #
b110011 %
1(
b100 *
b1 +
b100 ,
10
b110011 1
02
#80000
0!
0(
#85000
1!
b1000 #
b110000 %
1(
b1 *
b1000 +
b1 ,
10
b110000 1
02
#90000
0!
0(
#95000
1!
b100 #
b1101101 %
1(
b10 *
b100 +
b10 ,
10
b1101101 1
02
#100000
0!
0(
#105000
1!
b10 #
b1111001 %
1(
b11 *
b10 +
b11 ,
10
b1111001 1
02
#110000
0!
0(
#115000
1!
b1 #
b110011 %
1(
b100 *
b1 +
b100 ,
10
b110011 1
02
#120000
0!
0(
#125000
1!
b1000 #
b110000 %
1(
b1 *
b1000 +
b1 ,
10
b110000 1
02
#130000
0!
0(
#135000
1!
b100 #
b1101101 %
1(
b10 *
b100 +
b10 ,
10
b1101101 1
02
#140000
0!
0(
#145000
1!
b10 #
b1111001 %
1(
b11 *
b10 +
b11 ,
10
b1111001 1
02
#150000
0!
0(
#155000
1!
b1 #
b110011 %
1(
b100 *
b1 +
b100 ,
10
b110011 1
02
#160000
0!
0(
#165000
1!
b1000 #
b110000 %
1(
b1 *
b1000 +
b1 ,
10
b110000 1
02
#170000
0!
0(
#175000
1!
b100 #
b1101101 %
1(
b10 *
b100 +
b10 ,
10
b1101101 1
02
#180000
0!
0(
#185000
1!
b10 #
b1111001 %
1(
b11 *
b10 +
b11 ,
10
b1111001 1
02
#190000
0!
0(
#195000
1!
b1 #
b110011 %
1(
b100 *
b1 +
b100 ,
10
b110011 1
02
